^C:\USERS\MOWINCKEL\DOCUMENTS\MARKS-MENAGERIE\MINIPROJECT01\MINIPROJECT01\X64\DEBUG\MAIN.OBJ
C:\USERS\MOWINCKEL\DOCUMENTS\MARKS-MENAGERIE\MINIPROJECT01\X64\DEBUG\MINIPROJECT01.ILK
C:\USERS\MOWINCKEL\DOCUMENTS\MARKS-MENAGERIE\MINIPROJECT01\X64\DEBUG\MINIPROJECT01.EXE
C:\USERS\MOWINCKEL\DOCUMENTS\MARKS-MENAGERIE\MINIPROJECT01\X64\DEBUG\MINIPROJECT01.PDB
